{
  "namespace": "my.bookshop",
  "definitions": {
    "my.bookshop.Books": {
      "kind": "entity",
      "elements": {
        "ID": {
          "key": true,
          "type": "cds.Integer"
        },
        "title": {
          "type": "cds.String"
        },
        "stock": {
          "type": "cds.Integer"
        }
      }
    },
    "CatalogService": {
      "@source": "srv/cat-service.cds",
      "kind": "service",
      "@requires": "authenticated-user"
    },
    "CatalogService.Books": {
      "kind": "entity",
      "@readonly": true,
      "@restrict": [
        {
          "grant": "READ",
          "to": "catalogread"
        }
      ],
      "projection": {
        "from": {
          "ref": [
            "my.bookshop.Books"
          ]
        }
      },
      "elements": {
        "ID": {
          "key": true,
          "type": "cds.Integer"
        },
        "title": {
          "type": "cds.String"
        },
        "stock": {
          "type": "cds.Integer"
        }
      }
    },
    "CatalogService2": {
      "@source": "srv/cat-service.cds",
      "kind": "service",
      "@requires": "authenticated-user"
    },
    "CatalogService2.Books": {
      "kind": "entity",
      "@readonly": true,
      "projection": {
        "from": {
          "ref": [
            "my.bookshop.Books"
          ]
        }
      },
      "elements": {
        "ID": {
          "key": true,
          "type": "cds.Integer"
        },
        "title": {
          "type": "cds.String"
        },
        "stock": {
          "type": "cds.Integer"
        }
      }
    }
  },
  "meta": {
    "creator": "CDS Compiler v2.15.4",
    "flavor": "inferred"
  },
  "$version": "2.0"
}